^E:\WORK\MYPROJECTS\RTR\WINDOWS\SDK\02-WINDOW\MYWINDOW\DEBUG\MYWINDOW.OBJ
E:\WORK\MYPROJECTS\RTR\WINDOWS\SDK\02-WINDOW\MYWINDOW\DEBUG\MYWINDOW.ILK
E:\WORK\MYPROJECTS\RTR\WINDOWS\SDK\02-WINDOW\MYWINDOW\DEBUG\MYWINDOW.EXE
E:\WORK\MYPROJECTS\RTR\WINDOWS\SDK\02-WINDOW\MYWINDOW\DEBUG\MYWINDOW.PDB
