^E:\PRAFULLA - RTR_2018\ASSIGNMENTS\OPENGL\GLUT\02-RECTANGLE\RECTANGLE_GLUT\RECTANGLE_GLUT.CPP
E:\PRAFULLA - RTR_2018\ASSIGNMENTS\OPENGL\GLUT\02-RECTANGLE\RECTANGLE_GLUT\DEBUG\VC141.PDB
E:\PRAFULLA - RTR_2018\ASSIGNMENTS\OPENGL\GLUT\02-RECTANGLE\RECTANGLE_GLUT\DEBUG\VC141.IDB
E:\PRAFULLA - RTR_2018\ASSIGNMENTS\OPENGL\GLUT\02-RECTANGLE\RECTANGLE_GLUT\DEBUG\RECTANGLE_GLUT.OBJ
