^E:\PRAFULLA - RTR_2018\ASSIGNMENTS\OPENGL\GLUT\02-RECTANGLE\RECTANGLE_GLUT\DEBUG\RECTANGLE_GLUT.OBJ
E:\PRAFULLA - RTR_2018\ASSIGNMENTS\OPENGL\GLUT\02-RECTANGLE\RECTANGLE_GLUT\DEBUG\RECTANGLE_GLUT.ILK
E:\PRAFULLA - RTR_2018\ASSIGNMENTS\OPENGL\GLUT\02-RECTANGLE\RECTANGLE_GLUT\DEBUG\RECTANGLE_GLUT.EXE
E:\PRAFULLA - RTR_2018\ASSIGNMENTS\OPENGL\GLUT\02-RECTANGLE\RECTANGLE_GLUT\DEBUG\RECTANGLE_GLUT.PDB
